{
  "paths": {
    "sass": ["./scss/**/*.scss"],
    "appJs": ["./src/common/app.js"],
    "js": [
      "src/**/*.js",
      "!./src/common/app.js",
      "!./src/app.templates.js",
      "!**/*.spec.js"
    ],
    "renderedTemplates": ["./src/app.templates.js"],
    "templates": [
      "./src/**/*.html"      
      ],
    "fonts": ["./lib/ionic/fonts/*"],
    "fontsTarget":"./www/css/fonts",
    "vendor": "./lib/ionic/js/ionic.bundle.js"
  }
}
